\relax 
\providecommand\hyper@newdestlabel[2]{}
\providecommand\HyperFirstAtBeginDocument{\AtBeginDocument}
\HyperFirstAtBeginDocument{\ifx\hyper@anchor\@undefined
\global\let\oldcontentsline\contentsline
\gdef\contentsline#1#2#3#4{\oldcontentsline{#1}{#2}{#3}}
\global\let\oldnewlabel\newlabel
\gdef\newlabel#1#2{\newlabelxx{#1}#2}
\gdef\newlabelxx#1#2#3#4#5#6{\oldnewlabel{#1}{{#2}{#3}}}
\AtEndDocument{\ifx\hyper@anchor\@undefined
\let\contentsline\oldcontentsline
\let\newlabel\oldnewlabel
\fi}
\fi}
\global\let\hyper@last\relax 
\gdef\HyperFirstAtBeginDocument#1{#1}
\providecommand\HyField@AuxAddToFields[1]{}
\providecommand\HyField@AuxAddToCoFields[2]{}
\providecommand \oddpage@label [2]{}
\@writefile{toc}{\@ifundefined {etoctocstyle}{\let \etoc@startlocaltoc \@gobble \let \etoc@settocdepth \@gobble \let \etoc@depthtag \@gobble \let \etoc@setlocaltop \@gobble }{}}
\@writefile{toc}{\contentsline {chapter}{\numberline {1}Class Index}{1}{chapter.1}\protected@file@percent }
\@writefile{lof}{\addvspace {10\p@ }}
\@writefile{lot}{\addvspace {10\p@ }}
\@writefile{toc}{\contentsline {section}{\numberline {1.1}Class List}{1}{section.1.1}\protected@file@percent }
\@writefile{toc}{\contentsline {chapter}{\numberline {2}File Index}{3}{chapter.2}\protected@file@percent }
\@writefile{lof}{\addvspace {10\p@ }}
\@writefile{lot}{\addvspace {10\p@ }}
\@writefile{toc}{\contentsline {section}{\numberline {2.1}File List}{3}{section.2.1}\protected@file@percent }
\@writefile{toc}{\contentsline {chapter}{\numberline {3}Class Documentation}{5}{chapter.3}\protected@file@percent }
\@writefile{lof}{\addvspace {10\p@ }}
\@writefile{lot}{\addvspace {10\p@ }}
\@writefile{toc}{\contentsline {section}{\numberline {3.1}Alarm Struct Reference}{5}{section.3.1}\protected@file@percent }
\newlabel{structAlarm}{{3.1}{5}{Alarm Struct Reference}{section.3.1}{}}
\newlabel{structAlarm_a0e8d4ccd673180ae447c21aa366038b3}{{3.1}{5}{Public Attributes}{section*.1}{}}
\newlabel{structAlarm_a7a21a221580bd0aeeb61bb90128224d5}{{3.1}{5}{Public Attributes}{section*.1}{}}
\newlabel{structAlarm_a4a4a2834db07b635f4960ea174f03333}{{3.1}{5}{Public Attributes}{section*.1}{}}
\newlabel{structAlarm_ac4c963e6f6fdfb26499baea0c22ac1c6}{{3.1}{5}{Public Attributes}{section*.1}{}}
\newlabel{structAlarm_a2119c5d85d89b3089ea54d83d3020694}{{3.1}{5}{Public Attributes}{section*.1}{}}
\newlabel{structAlarm_a7ba414bf992a8431a6fdf8e257a14a2e}{{3.1}{5}{Public Attributes}{section*.1}{}}
\@writefile{toc}{\contentsline {subsection}{\numberline {3.1.1}Detailed Description}{5}{subsection.3.1.1}\protected@file@percent }
\@writefile{toc}{\contentsline {section}{\numberline {3.2}Alarm\discretionary {\mbox  {\scriptsize  $\hookleftarrow  $}}{}{}List Struct Reference}{5}{section.3.2}\protected@file@percent }
\newlabel{structAlarmList}{{3.2}{5}{Alarm\+List Struct Reference}{section.3.2}{}}
\newlabel{structAlarmList_acca9613525c9c947111c419396c1880f}{{3.2}{6}{Public Attributes}{section*.2}{}}
\newlabel{structAlarmList_a2cc0f8b8426c1bdea8997c77f04f6e8a}{{3.2}{6}{Public Attributes}{section*.2}{}}
\newlabel{structAlarmList_af3a6700021cb721ed6b538a92ebe659b}{{3.2}{6}{Public Attributes}{section*.2}{}}
\@writefile{toc}{\contentsline {subsection}{\numberline {3.2.1}Detailed Description}{6}{subsection.3.2.1}\protected@file@percent }
\@writefile{toc}{\contentsline {section}{\numberline {3.3}Block Struct Reference}{6}{section.3.3}\protected@file@percent }
\newlabel{structBlock}{{3.3}{6}{Block Struct Reference}{section.3.3}{}}
\newlabel{structBlock_a7120f9377e8dbc73d9f54de48bfc7cc9}{{3.3}{6}{Public Attributes}{section*.3}{}}
\newlabel{structBlock_aeec95c216422e7eeea7c9c59def7badd}{{3.3}{6}{Public Attributes}{section*.3}{}}
\newlabel{structBlock_afa0b3cf6cd4f23c032ce99ee7614f312}{{3.3}{6}{Public Attributes}{section*.3}{}}
\@writefile{toc}{\contentsline {subsection}{\numberline {3.3.1}Detailed Description}{6}{subsection.3.3.1}\protected@file@percent }
\@writefile{toc}{\contentsline {section}{\numberline {3.4}C\discretionary {\mbox  {\scriptsize  $\hookleftarrow  $}}{}{}M\discretionary {\mbox  {\scriptsize  $\hookleftarrow  $}}{}{}CB Struct Reference}{6}{section.3.4}\protected@file@percent }
\newlabel{structCMCB}{{3.4}{6}{C\+M\+CB Struct Reference}{section.3.4}{}}
\newlabel{structCMCB_af92562540a081e85274c978b318b74dd}{{3.4}{6}{Public Attributes}{section*.4}{}}
\newlabel{structCMCB_a6a59762bf6da8d8f1c9bb408a1c1c412}{{3.4}{6}{Public Attributes}{section*.4}{}}
\newlabel{structCMCB_a998b7b696089a9d855c4ce52a345b08f}{{3.4}{6}{Public Attributes}{section*.4}{}}
\newlabel{structCMCB_ae62f5b567cf453195f7b3c3fb9357c30}{{3.4}{6}{Public Attributes}{section*.4}{}}
\newlabel{structCMCB_ab09bf0f5a704275aa64791298ced6553}{{3.4}{6}{Public Attributes}{section*.4}{}}
\newlabel{structCMCB_aa26af2c9ed8f81fa61c3350ae9c67129}{{3.4}{6}{Public Attributes}{section*.4}{}}
\newlabel{structCMCB_aef13e1f5fa6f31a6f86ddbb34f9c32dc}{{3.4}{6}{Public Attributes}{section*.4}{}}
\@writefile{toc}{\contentsline {subsection}{\numberline {3.4.1}Detailed Description}{7}{subsection.3.4.1}\protected@file@percent }
\@writefile{toc}{\contentsline {section}{\numberline {3.5}Context Struct Reference}{7}{section.3.5}\protected@file@percent }
\newlabel{structContext}{{3.5}{7}{Context Struct Reference}{section.3.5}{}}
\newlabel{structContext_ae43fbebc41cc2fc4695709c479dc5a73}{{3.5}{7}{Public Attributes}{section*.5}{}}
\newlabel{structContext_afb78d7fa76f272032362d6b18a59a01b}{{3.5}{7}{Public Attributes}{section*.5}{}}
\newlabel{structContext_a0229a7f61719150a03defa1877d4ec18}{{3.5}{7}{Public Attributes}{section*.5}{}}
\newlabel{structContext_aa5758a858022521a72479b875cb7f7a3}{{3.5}{7}{Public Attributes}{section*.5}{}}
\newlabel{structContext_a8ac14d0e23cfd2809deb28f76a387d9c}{{3.5}{7}{Public Attributes}{section*.5}{}}
\newlabel{structContext_a0f2cd6920dabc16c38d670065c547c0f}{{3.5}{7}{Public Attributes}{section*.5}{}}
\newlabel{structContext_a007a926ead782b43418ae5691b1cd481}{{3.5}{7}{Public Attributes}{section*.5}{}}
\newlabel{structContext_a0cbe12da209b0b0ee0c5a3b6d91be3df}{{3.5}{7}{Public Attributes}{section*.5}{}}
\newlabel{structContext_aebe95dac770662cf4e3dfb8af719c6dd}{{3.5}{7}{Public Attributes}{section*.5}{}}
\newlabel{structContext_a6d3d58264d20e6332fb7dfb13433143a}{{3.5}{7}{Public Attributes}{section*.5}{}}
\newlabel{structContext_ac459933047814e79e8e72b564ab5070c}{{3.5}{7}{Public Attributes}{section*.5}{}}
\newlabel{structContext_a3c4ae94fa45a4c372c08da0ec245b2b3}{{3.5}{7}{Public Attributes}{section*.5}{}}
\newlabel{structContext_a39a438438f3105691d05d7d5fa6ff020}{{3.5}{7}{Public Attributes}{section*.5}{}}
\newlabel{structContext_a3cc18b6d282bcebf13327adb750a56e5}{{3.5}{7}{Public Attributes}{section*.5}{}}
\newlabel{structContext_aa3ed9266f0fdbbc48dcd40efa6035d5b}{{3.5}{7}{Public Attributes}{section*.5}{}}
\@writefile{toc}{\contentsline {subsection}{\numberline {3.5.1}Detailed Description}{7}{subsection.3.5.1}\protected@file@percent }
\@writefile{toc}{\contentsline {section}{\numberline {3.6}D\discretionary {\mbox  {\scriptsize  $\hookleftarrow  $}}{}{}CB Struct Reference}{7}{section.3.6}\protected@file@percent }
\newlabel{structDCB}{{3.6}{7}{D\+CB Struct Reference}{section.3.6}{}}
\newlabel{structDCB_a6aea3b4bdd1cf06075995f5549d15474}{{3.6}{8}{Public Attributes}{section*.6}{}}
\newlabel{structDCB_a9ff91d8ab4d13997408998602065c776}{{3.6}{8}{Public Attributes}{section*.6}{}}
\newlabel{structDCB_a144212b782c3e8470a0e6a88b7ffafa8}{{3.6}{8}{Public Attributes}{section*.6}{}}
\newlabel{structDCB_aa6b567b956d429932cf8e4cabff6e04f}{{3.6}{8}{Public Attributes}{section*.6}{}}
\newlabel{structDCB_a95076fe0b0e460af7c729d7cfb233107}{{3.6}{8}{Public Attributes}{section*.6}{}}
\newlabel{structDCB_af67d02e490225c9b413857fee7258fd2}{{3.6}{8}{Public Attributes}{section*.6}{}}
\newlabel{structDCB_aa5ccc5d9b85c7e13a8dedc86109034b9}{{3.6}{8}{Public Attributes}{section*.6}{}}
\newlabel{structDCB_a14dd610e2b5e875f3999b0541cb07ba2}{{3.6}{8}{Public Attributes}{section*.6}{}}
\newlabel{structDCB_a4ee561cc2997d1a1a42cd1018dd387ec}{{3.6}{8}{Public Attributes}{section*.6}{}}
\newlabel{structDCB_a91fd99e8feed3a4739df010c4c5e4a27}{{3.6}{8}{Public Attributes}{section*.6}{}}
\newlabel{structDCB_a1c485910bd0247b7b341d6765dbb6a27}{{3.6}{8}{Public Attributes}{section*.6}{}}
\newlabel{structDCB_a9ee05b737bdd96656f97c9a1ec73d41c}{{3.6}{8}{Public Attributes}{section*.6}{}}
\newlabel{structDCB_a4d145117878c5114cda7095e9fc82fa6}{{3.6}{8}{Public Attributes}{section*.6}{}}
\@writefile{toc}{\contentsline {subsection}{\numberline {3.6.1}Detailed Description}{8}{subsection.3.6.1}\protected@file@percent }
\@writefile{toc}{\contentsline {section}{\numberline {3.7}gdt\discretionary {\mbox  {\scriptsize  $\hookleftarrow  $}}{}{}\_\discretionary {\mbox  {\scriptsize  $\hookleftarrow  $}}{}{}descriptor\discretionary {\mbox  {\scriptsize  $\hookleftarrow  $}}{}{}\_\discretionary {\mbox  {\scriptsize  $\hookleftarrow  $}}{}{}struct Struct Reference}{8}{section.3.7}\protected@file@percent }
\newlabel{structgdt__descriptor__struct}{{3.7}{8}{gdt\+\_\+descriptor\+\_\+struct Struct Reference}{section.3.7}{}}
\newlabel{structgdt__descriptor__struct_a3c8ae013805dd982b25f0d62e3cdee0e}{{3.7}{8}{Public Attributes}{section*.7}{}}
\newlabel{structgdt__descriptor__struct_aa47407e7b435c214d0cdd22cb66f0e71}{{3.7}{8}{Public Attributes}{section*.7}{}}
\@writefile{toc}{\contentsline {subsection}{\numberline {3.7.1}Detailed Description}{8}{subsection.3.7.1}\protected@file@percent }
\@writefile{toc}{\contentsline {section}{\numberline {3.8}gdt\discretionary {\mbox  {\scriptsize  $\hookleftarrow  $}}{}{}\_\discretionary {\mbox  {\scriptsize  $\hookleftarrow  $}}{}{}entry\discretionary {\mbox  {\scriptsize  $\hookleftarrow  $}}{}{}\_\discretionary {\mbox  {\scriptsize  $\hookleftarrow  $}}{}{}struct Struct Reference}{8}{section.3.8}\protected@file@percent }
\newlabel{structgdt__entry__struct}{{3.8}{8}{gdt\+\_\+entry\+\_\+struct Struct Reference}{section.3.8}{}}
\newlabel{structgdt__entry__struct_ada721fbdc3e8d3feae3b07d4b82a37bd}{{3.8}{8}{Public Attributes}{section*.8}{}}
\newlabel{structgdt__entry__struct_a90f05cd7f227a34e977a639843a23275}{{3.8}{8}{Public Attributes}{section*.8}{}}
\newlabel{structgdt__entry__struct_a0369f1e190c433425c5b0f40c2070715}{{3.8}{8}{Public Attributes}{section*.8}{}}
\newlabel{structgdt__entry__struct_a7457cb21f29e919a8ea62fc0110ac238}{{3.8}{8}{Public Attributes}{section*.8}{}}
\newlabel{structgdt__entry__struct_afac75bdf53080168c8899c442862410a}{{3.8}{8}{Public Attributes}{section*.8}{}}
\newlabel{structgdt__entry__struct_aa03c14867c293012449a3b18a07f45f2}{{3.8}{8}{Public Attributes}{section*.8}{}}
\@writefile{toc}{\contentsline {subsection}{\numberline {3.8.1}Detailed Description}{9}{subsection.3.8.1}\protected@file@percent }
\@writefile{toc}{\contentsline {section}{\numberline {3.9}idt\discretionary {\mbox  {\scriptsize  $\hookleftarrow  $}}{}{}\_\discretionary {\mbox  {\scriptsize  $\hookleftarrow  $}}{}{}entry\discretionary {\mbox  {\scriptsize  $\hookleftarrow  $}}{}{}\_\discretionary {\mbox  {\scriptsize  $\hookleftarrow  $}}{}{}struct Struct Reference}{9}{section.3.9}\protected@file@percent }
\newlabel{structidt__entry__struct}{{3.9}{9}{idt\+\_\+entry\+\_\+struct Struct Reference}{section.3.9}{}}
\newlabel{structidt__entry__struct_aefa75d6bfe07f1f544393b4dbccb3e76}{{3.9}{9}{Public Attributes}{section*.9}{}}
\newlabel{structidt__entry__struct_a85254c7df6a612f4a4b3bb470ff3370c}{{3.9}{9}{Public Attributes}{section*.9}{}}
\newlabel{structidt__entry__struct_a0d33c8509ae77d42e680d8d11b4c8035}{{3.9}{9}{Public Attributes}{section*.9}{}}
\newlabel{structidt__entry__struct_a46c92bd8f07d5ff4e379a07b293c46af}{{3.9}{9}{Public Attributes}{section*.9}{}}
\newlabel{structidt__entry__struct_a1c6a29cae5ea9a832cf4261aaa5b43d0}{{3.9}{9}{Public Attributes}{section*.9}{}}
\@writefile{toc}{\contentsline {subsection}{\numberline {3.9.1}Detailed Description}{9}{subsection.3.9.1}\protected@file@percent }
\@writefile{toc}{\contentsline {section}{\numberline {3.10}idt\discretionary {\mbox  {\scriptsize  $\hookleftarrow  $}}{}{}\_\discretionary {\mbox  {\scriptsize  $\hookleftarrow  $}}{}{}struct Struct Reference}{9}{section.3.10}\protected@file@percent }
\newlabel{structidt__struct}{{3.10}{9}{idt\+\_\+struct Struct Reference}{section.3.10}{}}
\newlabel{structidt__struct_aa75e2805e21db1a33816af778263d712}{{3.10}{9}{Public Attributes}{section*.10}{}}
\newlabel{structidt__struct_a1a91fe2ab44ad8dfbad0f6d07ec789ea}{{3.10}{9}{Public Attributes}{section*.10}{}}
\@writefile{toc}{\contentsline {subsection}{\numberline {3.10.1}Detailed Description}{9}{subsection.3.10.1}\protected@file@percent }
\@writefile{toc}{\contentsline {section}{\numberline {3.11}I\discretionary {\mbox  {\scriptsize  $\hookleftarrow  $}}{}{}O\discretionary {\mbox  {\scriptsize  $\hookleftarrow  $}}{}{}CB Struct Reference}{9}{section.3.11}\protected@file@percent }
\newlabel{structIOCB}{{3.11}{9}{I\+O\+CB Struct Reference}{section.3.11}{}}
\newlabel{structIOCB_a7b189bbb7c9437177c10636be8eda79e}{{3.11}{10}{Public Attributes}{section*.11}{}}
\newlabel{structIOCB_a4b3f29fa4e13e768638ebb179f1f19b6}{{3.11}{10}{Public Attributes}{section*.11}{}}
\newlabel{structIOCB_a66086c0e241673a961c35b4d8d1bd440}{{3.11}{10}{Public Attributes}{section*.11}{}}
\newlabel{structIOCB_a02647f751537a9d0ab9936a7cbfac36f}{{3.11}{10}{Public Attributes}{section*.11}{}}
\newlabel{structIOCB_a32e73294182b1b9e688019fcf6f157d9}{{3.11}{10}{Public Attributes}{section*.11}{}}
\@writefile{toc}{\contentsline {subsection}{\numberline {3.11.1}Detailed Description}{10}{subsection.3.11.1}\protected@file@percent }
\@writefile{toc}{\contentsline {section}{\numberline {3.12}I\discretionary {\mbox  {\scriptsize  $\hookleftarrow  $}}{}{}OD Struct Reference}{10}{section.3.12}\protected@file@percent }
\newlabel{structIOD}{{3.12}{10}{I\+OD Struct Reference}{section.3.12}{}}
\newlabel{structIOD_ad29d7ad89de0d4ab304ec117be1ab3e5}{{3.12}{10}{Public Attributes}{section*.12}{}}
\newlabel{structIOD_af5266afa6f0f78f6c997d31c2b57ff77}{{3.12}{10}{Public Attributes}{section*.12}{}}
\newlabel{structIOD_ab5b5157e454304f97cf57e07bac7d4ef}{{3.12}{10}{Public Attributes}{section*.12}{}}
\newlabel{structIOD_ab8d265deba43a5fc0f8c92844200a1b2}{{3.12}{10}{Public Attributes}{section*.12}{}}
\newlabel{structIOD_a5c985db7b8667471bd6c4a8a6542eb20}{{3.12}{10}{Public Attributes}{section*.12}{}}
\newlabel{structIOD_a4eff670afd4700cbe31f19623f01595f}{{3.12}{10}{Public Attributes}{section*.12}{}}
\newlabel{structIOD_a9a4573040e1f2ad4657de8f16e04da59}{{3.12}{10}{Public Attributes}{section*.12}{}}
\@writefile{toc}{\contentsline {subsection}{\numberline {3.12.1}Detailed Description}{10}{subsection.3.12.1}\protected@file@percent }
\@writefile{toc}{\contentsline {section}{\numberline {3.13}L\discretionary {\mbox  {\scriptsize  $\hookleftarrow  $}}{}{}M\discretionary {\mbox  {\scriptsize  $\hookleftarrow  $}}{}{}CB Struct Reference}{11}{section.3.13}\protected@file@percent }
\newlabel{structLMCB}{{3.13}{11}{L\+M\+CB Struct Reference}{section.3.13}{}}
\newlabel{structLMCB_ae09cb0fca3e686cdaab331371d09fc98}{{3.13}{11}{Public Attributes}{section*.13}{}}
\newlabel{structLMCB_a10c88a922fd0715001e042e4c7fc6891}{{3.13}{11}{Public Attributes}{section*.13}{}}
\newlabel{structLMCB_adb62d3e1a665c3deb5d05573e7927fe3}{{3.13}{11}{Public Attributes}{section*.13}{}}
\@writefile{toc}{\contentsline {subsection}{\numberline {3.13.1}Detailed Description}{11}{subsection.3.13.1}\protected@file@percent }
\@writefile{toc}{\contentsline {section}{\numberline {3.14}param Struct Reference}{11}{section.3.14}\protected@file@percent }
\newlabel{structparam}{{3.14}{11}{param Struct Reference}{section.3.14}{}}
\newlabel{structparam_a81c8b24055c2908ebe480598aba6044c}{{3.14}{11}{Public Attributes}{section*.14}{}}
\newlabel{structparam_a44a7285b02749114186a9f9971941bcb}{{3.14}{11}{Public Attributes}{section*.14}{}}
\newlabel{structparam_af15d63bace93014ec7425635c892ce99}{{3.14}{11}{Public Attributes}{section*.14}{}}
\newlabel{structparam_ab61d8fe96dbeed1ef0387802ac453c53}{{3.14}{11}{Public Attributes}{section*.14}{}}
\@writefile{toc}{\contentsline {subsection}{\numberline {3.14.1}Detailed Description}{11}{subsection.3.14.1}\protected@file@percent }
\@writefile{toc}{\contentsline {section}{\numberline {3.15}P\discretionary {\mbox  {\scriptsize  $\hookleftarrow  $}}{}{}CB Struct Reference}{11}{section.3.15}\protected@file@percent }
\newlabel{structPCB}{{3.15}{11}{P\+CB Struct Reference}{section.3.15}{}}
\newlabel{structPCB_a11d1f56e3b731b20d78694653e8b0bac}{{3.15}{12}{Public Attributes}{section*.15}{}}
\newlabel{structPCB_a841c183d7aab6225ff90e175df69df57}{{3.15}{12}{Public Attributes}{section*.15}{}}
\newlabel{structPCB_a0dac215d8558f38a6ca53d7633f943f3}{{3.15}{12}{Public Attributes}{section*.15}{}}
\newlabel{structPCB_a6683ab3361fa472dbd7bfd170f8dbcb3}{{3.15}{12}{Public Attributes}{section*.15}{}}
\newlabel{structPCB_a078a7ed7ff19faf160ec07b717d2dce9}{{3.15}{12}{Public Attributes}{section*.15}{}}
\newlabel{structPCB_ab04187eade092fac80fb0e8a70818ee1}{{3.15}{12}{Public Attributes}{section*.15}{}}
\newlabel{structPCB_ac312c3f3608c730b1661565f8b53d657}{{3.15}{12}{Public Attributes}{section*.15}{}}
\newlabel{structPCB_a3086bfad0a32b9c3457747bc88feba8a}{{3.15}{12}{Public Attributes}{section*.15}{}}
\@writefile{toc}{\contentsline {subsection}{\numberline {3.15.1}Detailed Description}{12}{subsection.3.15.1}\protected@file@percent }
\@writefile{toc}{\contentsline {section}{\numberline {3.16}Queue Struct Reference}{12}{section.3.16}\protected@file@percent }
\newlabel{structQueue}{{3.16}{12}{Queue Struct Reference}{section.3.16}{}}
\newlabel{structQueue_a0f56b04440d87d231b06f3e287c8eb6a}{{3.16}{12}{Public Attributes}{section*.16}{}}
\newlabel{structQueue_a0d5aaf614061f1ad2a9c7d45fdc6fb18}{{3.16}{12}{Public Attributes}{section*.16}{}}
\newlabel{structQueue_af94c5a7f30640908e0fd80df99be45d6}{{3.16}{12}{Public Attributes}{section*.16}{}}
\@writefile{toc}{\contentsline {subsection}{\numberline {3.16.1}Detailed Description}{12}{subsection.3.16.1}\protected@file@percent }
\@writefile{toc}{\contentsline {section}{\numberline {3.17}Stack Struct Reference}{12}{section.3.17}\protected@file@percent }
\newlabel{structStack}{{3.17}{12}{Stack Struct Reference}{section.3.17}{}}
\newlabel{structStack_a213567cd875d72f0f009f0b94c8c30a3}{{3.17}{13}{Public Attributes}{section*.17}{}}
\newlabel{structStack_a1113d3910f07487bce6dbe6e29aa4948}{{3.17}{13}{Public Attributes}{section*.17}{}}
\@writefile{toc}{\contentsline {subsection}{\numberline {3.17.1}Detailed Description}{13}{subsection.3.17.1}\protected@file@percent }
\@writefile{toc}{\contentsline {chapter}{\numberline {4}File Documentation}{15}{chapter.4}\protected@file@percent }
\@writefile{lof}{\addvspace {10\p@ }}
\@writefile{lot}{\addvspace {10\p@ }}
\@writefile{toc}{\contentsline {section}{\numberline {4.1}mpx\discretionary {\mbox  {\scriptsize  $\hookleftarrow  $}}{}{}\_\discretionary {\mbox  {\scriptsize  $\hookleftarrow  $}}{}{}core/include/core/serial.h File Reference}{15}{section.4.1}\protected@file@percent }
\newlabel{serial_8h}{{4.1}{15}{mpx\+\_\+core/include/core/serial.h File Reference}{section.4.1}{}}
\newlabel{serial_8h_a00dbb3ab1c59e14699be9393693e2248}{{4.1}{15}{Macros}{section*.18}{}}
\newlabel{serial_8h_a435e02f194c24c9b0e00d7cd27a1704e}{{4.1}{15}{Macros}{section*.18}{}}
\newlabel{serial_8h_abbed02672431595364c5dd35809303a6}{{4.1}{15}{Macros}{section*.18}{}}
\newlabel{serial_8h_a595cabb01568ba641574d24546d99c6b}{{4.1}{15}{Macros}{section*.18}{}}
\newlabel{serial_8h_a7078c07ff8b2c48780558549a8f7cf90}{{4.1}{15}{Functions}{section*.19}{}}
\newlabel{serial_8h_a3514f7abff236a4e00a6c46021ce5e22}{{4.1}{15}{Functions}{section*.19}{}}
\newlabel{serial_8h_a995827efcd4dcfb780c9fbb9645410a4}{{4.1}{15}{Functions}{section*.19}{}}
\newlabel{serial_8h_ae97b87ee1f57c687e7fca6f9958e03ef}{{4.1}{15}{Functions}{section*.19}{}}
\newlabel{serial_8h_a3f4008da5feabfb7e086f6673a81104b}{{4.1}{15}{Functions}{section*.19}{}}
\newlabel{serial_8h_ab1d1d36bd91339352f5b66f809b34d8c}{{4.1}{15}{Functions}{section*.19}{}}
\@writefile{toc}{\contentsline {section}{\numberline {4.2}mpx\discretionary {\mbox  {\scriptsize  $\hookleftarrow  $}}{}{}\_\discretionary {\mbox  {\scriptsize  $\hookleftarrow  $}}{}{}core/kernel/core/kmain.c File Reference}{15}{section.4.2}\protected@file@percent }
\newlabel{kmain_8c}{{4.2}{15}{mpx\+\_\+core/kernel/core/kmain.c File Reference}{section.4.2}{}}
\newlabel{kmain_8c_a406c20548822065e144564476378f8a1}{{4.2}{16}{Functions}{section*.20}{}}
\newlabel{kmain_8c_a27c08baccb42a49e0451462ae96fb0f4}{{4.2}{16}{Variables}{section*.21}{}}
\@writefile{toc}{\contentsline {section}{\numberline {4.3}mpx\discretionary {\mbox  {\scriptsize  $\hookleftarrow  $}}{}{}\_\discretionary {\mbox  {\scriptsize  $\hookleftarrow  $}}{}{}core/kernel/core/serial.c File Reference}{16}{section.4.3}\protected@file@percent }
\newlabel{serial_8c}{{4.3}{16}{mpx\+\_\+core/kernel/core/serial.c File Reference}{section.4.3}{}}
\newlabel{serial_8c_a258bb72419ef143530a2f8f55e7d57af}{{4.3}{16}{Macros}{section*.22}{}}
\newlabel{serial_8c_a7078c07ff8b2c48780558549a8f7cf90}{{4.3}{16}{Functions}{section*.23}{}}
\newlabel{serial_8c_a3514f7abff236a4e00a6c46021ce5e22}{{4.3}{16}{Functions}{section*.23}{}}
\newlabel{serial_8c_a995827efcd4dcfb780c9fbb9645410a4}{{4.3}{16}{Functions}{section*.23}{}}
\newlabel{serial_8c_ae97b87ee1f57c687e7fca6f9958e03ef}{{4.3}{16}{Functions}{section*.23}{}}
\newlabel{serial_8c_a3f4008da5feabfb7e086f6673a81104b}{{4.3}{16}{Functions}{section*.23}{}}
\newlabel{serial_8c_ab1d1d36bd91339352f5b66f809b34d8c}{{4.3}{16}{Functions}{section*.23}{}}
\newlabel{serial_8c_adbb2c18b0aaab5c1927a6f674768a710}{{4.3}{16}{Variables}{section*.24}{}}
\newlabel{serial_8c_a1a756238531fc5bf1096f89dc18e835e}{{4.3}{16}{Variables}{section*.24}{}}
\@writefile{toc}{\contentsline {section}{\numberline {4.4}mpx\discretionary {\mbox  {\scriptsize  $\hookleftarrow  $}}{}{}\_\discretionary {\mbox  {\scriptsize  $\hookleftarrow  $}}{}{}core/modules/mpx\discretionary {\mbox  {\scriptsize  $\hookleftarrow  $}}{}{}\_\discretionary {\mbox  {\scriptsize  $\hookleftarrow  $}}{}{}supt.c File Reference}{16}{section.4.4}\protected@file@percent }
\newlabel{mpx__supt_8c}{{4.4}{16}{mpx\+\_\+core/modules/mpx\+\_\+supt.c File Reference}{section.4.4}{}}
\newlabel{mpx__supt_8c_aaa3eb70f93cb8acf38ec0d028b9874f0}{{4.4}{17}{Functions}{section*.25}{}}
\newlabel{mpx__supt_8c_a53332c6a3107a4feed6e2e79690a6ffa}{{4.4}{17}{Functions}{section*.25}{}}
\newlabel{mpx__supt_8c_a4a28bb188c9fed51228c46980b20e605}{{4.4}{17}{Functions}{section*.25}{}}
\newlabel{mpx__supt_8c_a2463d934fa39601c275a3ade8afd18bc}{{4.4}{17}{Functions}{section*.25}{}}
\newlabel{mpx__supt_8c_a61adad2abba0a3a225c2290b3de1fe93}{{4.4}{17}{Functions}{section*.25}{}}
\newlabel{mpx__supt_8c_a950663d39dbb073c9dff9cf3b5d3392c}{{4.4}{17}{Functions}{section*.25}{}}
\newlabel{mpx__supt_8c_a83abbeda22fc5e6c2b35523b64199c1c}{{4.4}{17}{Functions}{section*.25}{}}
\newlabel{mpx__supt_8c_a3b4b77494d0fad58939896ddc5290c99}{{4.4}{17}{Variables}{section*.26}{}}
\newlabel{mpx__supt_8c_a3d19c725b7f9f45e9da97a79ca6a4737}{{4.4}{17}{Variables}{section*.26}{}}
\newlabel{mpx__supt_8c_a421e2b48efb5facc71d16979252710e2}{{4.4}{17}{Variables}{section*.26}{}}
\newlabel{mpx__supt_8c_a19c47c02b0338bc13716d98305bb8a34}{{4.4}{17}{Variables}{section*.26}{}}
\@writefile{toc}{\contentsline {section}{\numberline {4.5}mpx\discretionary {\mbox  {\scriptsize  $\hookleftarrow  $}}{}{}\_\discretionary {\mbox  {\scriptsize  $\hookleftarrow  $}}{}{}core/modules/mpx\discretionary {\mbox  {\scriptsize  $\hookleftarrow  $}}{}{}\_\discretionary {\mbox  {\scriptsize  $\hookleftarrow  $}}{}{}supt.h File Reference}{17}{section.4.5}\protected@file@percent }
\newlabel{mpx__supt_8h}{{4.5}{17}{mpx\+\_\+core/modules/mpx\+\_\+supt.h File Reference}{section.4.5}{}}
\newlabel{mpx__supt_8h_ad111e603bbebe5d87f6bc39264ce4733}{{4.5}{17}{Macros}{section*.28}{}}
\newlabel{mpx__supt_8h_a9c21a7caee326d7803b94ae1952b27ca}{{4.5}{17}{Macros}{section*.28}{}}
\newlabel{mpx__supt_8h_ada74e7db007a68e763f20c17f2985356}{{4.5}{17}{Macros}{section*.28}{}}
\newlabel{mpx__supt_8h_aa10f470e996d0f51210d24f442d25e1e}{{4.5}{17}{Macros}{section*.28}{}}
\newlabel{mpx__supt_8h_a95d66938b0cfadb27cc1368b5e04fdb3}{{4.5}{17}{Macros}{section*.28}{}}
\newlabel{mpx__supt_8h_aa8cecfc5c5c054d2875c03e77b7be15d}{{4.5}{17}{Macros}{section*.28}{}}
\newlabel{mpx__supt_8h_aa93f0eb578d23995850d61f7d61c55c1}{{4.5}{17}{Macros}{section*.28}{}}
\newlabel{mpx__supt_8h_a9d88621bfb79cb860b9ea2b5abb1c7f0}{{4.5}{17}{Macros}{section*.28}{}}
\newlabel{mpx__supt_8h_a177f46669733cd706e9476485dfd961b}{{4.5}{17}{Macros}{section*.28}{}}
\newlabel{mpx__supt_8h_afe0ac8d1ebddd519bed41c8d8e79fad0}{{4.5}{17}{Macros}{section*.28}{}}
\newlabel{mpx__supt_8h_a05541487bcf6e840b918f0a6ef097024}{{4.5}{17}{Macros}{section*.28}{}}
\newlabel{mpx__supt_8h_a68745bb3b58fd02dcee2cad3b2331def}{{4.5}{17}{Macros}{section*.28}{}}
\newlabel{mpx__supt_8h_a0ae03232a715c0ff4983049aa1334e98}{{4.5}{17}{Macros}{section*.28}{}}
\newlabel{mpx__supt_8h_a69d0c9d3e706f2549635aeb72dc2c9b1}{{4.5}{17}{Macros}{section*.28}{}}
\newlabel{mpx__supt_8h_a02d9b620a75ca60cd5d24b51309af887}{{4.5}{17}{Macros}{section*.28}{}}
\newlabel{mpx__supt_8h_a9f45976a0d1fa6f0a85a74b6efd93835}{{4.5}{17}{Macros}{section*.28}{}}
\newlabel{mpx__supt_8h_a2b85babe3dc4162f5551aae5d269ba60}{{4.5}{17}{Macros}{section*.28}{}}
\newlabel{mpx__supt_8h_a84cb8bbda8042a324f49102bc200cc54}{{4.5}{17}{Macros}{section*.28}{}}
\newlabel{mpx__supt_8h_a702309aca6604d528fd1e9aa0879a0c7}{{4.5}{17}{Macros}{section*.28}{}}
\newlabel{mpx__supt_8h_aaa3eb70f93cb8acf38ec0d028b9874f0}{{4.5}{18}{Functions}{section*.29}{}}
\newlabel{mpx__supt_8h_a53332c6a3107a4feed6e2e79690a6ffa}{{4.5}{18}{Functions}{section*.29}{}}
\newlabel{mpx__supt_8h_a4a28bb188c9fed51228c46980b20e605}{{4.5}{18}{Functions}{section*.29}{}}
\newlabel{mpx__supt_8h_a2463d934fa39601c275a3ade8afd18bc}{{4.5}{18}{Functions}{section*.29}{}}
\newlabel{mpx__supt_8h_a61adad2abba0a3a225c2290b3de1fe93}{{4.5}{18}{Functions}{section*.29}{}}
\newlabel{mpx__supt_8h_a950663d39dbb073c9dff9cf3b5d3392c}{{4.5}{18}{Functions}{section*.29}{}}
\newlabel{mpx__supt_8h_a83abbeda22fc5e6c2b35523b64199c1c}{{4.5}{18}{Functions}{section*.29}{}}
\newlabel{mpx__supt_8h_aa1761099416cb821f03d16506103ce87}{{4.5}{18}{Functions}{section*.29}{}}
\@writefile{toc}{\contentsline {section}{\numberline {4.6}mpx\discretionary {\mbox  {\scriptsize  $\hookleftarrow  $}}{}{}\_\discretionary {\mbox  {\scriptsize  $\hookleftarrow  $}}{}{}core/modules/\discretionary {\mbox  {\scriptsize  $\hookleftarrow  $}}{}{}R1/comhand.h File Reference}{18}{section.4.6}\protected@file@percent }
\newlabel{comhand_8h}{{4.6}{18}{mpx\+\_\+core/modules/\+R1/comhand.h File Reference}{section.4.6}{}}
\newlabel{comhand_8h_ad111e603bbebe5d87f6bc39264ce4733}{{4.6}{18}{Macros}{section*.30}{}}
\newlabel{comhand_8h_a9c21a7caee326d7803b94ae1952b27ca}{{4.6}{18}{Macros}{section*.30}{}}
\newlabel{comhand_8h_ada74e7db007a68e763f20c17f2985356}{{4.6}{18}{Macros}{section*.30}{}}
\newlabel{comhand_8h_aa10f470e996d0f51210d24f442d25e1e}{{4.6}{18}{Macros}{section*.30}{}}
\newlabel{comhand_8h_a95d66938b0cfadb27cc1368b5e04fdb3}{{4.6}{18}{Macros}{section*.30}{}}
\newlabel{comhand_8h_aa8cecfc5c5c054d2875c03e77b7be15d}{{4.6}{18}{Macros}{section*.30}{}}
\newlabel{comhand_8h_aa93f0eb578d23995850d61f7d61c55c1}{{4.6}{18}{Macros}{section*.30}{}}
\newlabel{comhand_8h_a9d88621bfb79cb860b9ea2b5abb1c7f0}{{4.6}{18}{Macros}{section*.30}{}}
\newlabel{comhand_8h_a177f46669733cd706e9476485dfd961b}{{4.6}{18}{Macros}{section*.30}{}}
\newlabel{comhand_8h_afe0ac8d1ebddd519bed41c8d8e79fad0}{{4.6}{18}{Macros}{section*.30}{}}
\newlabel{comhand_8h_a05541487bcf6e840b918f0a6ef097024}{{4.6}{18}{Macros}{section*.30}{}}
\newlabel{comhand_8h_a68745bb3b58fd02dcee2cad3b2331def}{{4.6}{18}{Macros}{section*.30}{}}
\newlabel{comhand_8h_a0ae03232a715c0ff4983049aa1334e98}{{4.6}{18}{Macros}{section*.30}{}}
\newlabel{comhand_8h_a69d0c9d3e706f2549635aeb72dc2c9b1}{{4.6}{18}{Macros}{section*.30}{}}
\newlabel{comhand_8h_a02d9b620a75ca60cd5d24b51309af887}{{4.6}{18}{Macros}{section*.30}{}}
\newlabel{comhand_8h_a9f45976a0d1fa6f0a85a74b6efd93835}{{4.6}{18}{Macros}{section*.30}{}}
\newlabel{comhand_8h_a2b85babe3dc4162f5551aae5d269ba60}{{4.6}{18}{Macros}{section*.30}{}}
\newlabel{comhand_8h_a696b9379478b0144cabeae55bc42425c}{{4.6}{18}{Macros}{section*.30}{}}
\newlabel{comhand_8h_a84cb8bbda8042a324f49102bc200cc54}{{4.6}{18}{Macros}{section*.30}{}}
\newlabel{comhand_8h_a702309aca6604d528fd1e9aa0879a0c7}{{4.6}{18}{Macros}{section*.30}{}}
\newlabel{comhand_8h_aa1761099416cb821f03d16506103ce87}{{4.6}{19}{Functions}{section*.31}{}}
\newlabel{comhand_8h_abc705596395cdef0f3ea5f5441ea06c2}{{4.6}{19}{Functions}{section*.31}{}}
\newlabel{comhand_8h_aadd58a2bd505eba3564c7483be1a6140}{{4.6}{19}{Functions}{section*.31}{}}
\newlabel{comhand_8h_a358d2e2397ca11ccd17553e3c40e7901}{{4.6}{19}{Functions}{section*.31}{}}
\newlabel{comhand_8h_a97ee70a8770dc30d06c744b24eb2fcfc}{{4.6}{19}{Functions}{section*.31}{}}
\newlabel{comhand_8h_a4953d1edcbbfc7e420c423ded1d5621a}{{4.6}{19}{Functions}{section*.31}{}}
\newlabel{comhand_8h_a213526a36cd6b3c49595a559ab08dee5}{{4.6}{19}{Functions}{section*.31}{}}
\@writefile{toc}{\contentsline {section}{\numberline {4.7}mpx\discretionary {\mbox  {\scriptsize  $\hookleftarrow  $}}{}{}\_\discretionary {\mbox  {\scriptsize  $\hookleftarrow  $}}{}{}core/modules/\discretionary {\mbox  {\scriptsize  $\hookleftarrow  $}}{}{}R1/date.h File Reference}{19}{section.4.7}\protected@file@percent }
\newlabel{date_8h}{{4.7}{19}{mpx\+\_\+core/modules/\+R1/date.h File Reference}{section.4.7}{}}
\newlabel{date_8h_affb6f9c7b2c1d585677a5bba1da35c06}{{4.7}{19}{Functions}{section*.32}{}}
\newlabel{date_8h_a1c7c164fd3c7dea7004ece3c6251fc94}{{4.7}{19}{Functions}{section*.32}{}}
\newlabel{date_8h_aa54012f26170cd43808a80af128c960f}{{4.7}{19}{Functions}{section*.32}{}}
\newlabel{date_8h_aa155fdc926b45ca3c91ebec313e5acf9}{{4.7}{19}{Functions}{section*.32}{}}
\newlabel{date_8h_afc443fe98a5312e4b6f8d5fe13baf7cb}{{4.7}{19}{Functions}{section*.32}{}}
\newlabel{date_8h_a2997f50b7af6a04642d3c171aa75aead}{{4.7}{19}{Functions}{section*.32}{}}
\newlabel{date_8h_ad275fa2db8288e30e58f93fccecdabb6}{{4.7}{19}{Functions}{section*.32}{}}
\@writefile{toc}{\contentsline {section}{\numberline {4.8}mpx\discretionary {\mbox  {\scriptsize  $\hookleftarrow  $}}{}{}\_\discretionary {\mbox  {\scriptsize  $\hookleftarrow  $}}{}{}core/modules/\discretionary {\mbox  {\scriptsize  $\hookleftarrow  $}}{}{}R2/pcb.h File Reference}{19}{section.4.8}\protected@file@percent }
\newlabel{pcb_8h}{{4.8}{19}{mpx\+\_\+core/modules/\+R2/pcb.h File Reference}{section.4.8}{}}
\newlabel{pcb_8h_ad1235d5ce36f7267285e82dccd428aa6}{{4.8}{20}{Macros}{section*.34}{}}
\newlabel{pcb_8h_a6fb7181d994ee98e735494be55809708}{{4.8}{20}{Macros}{section*.34}{}}
\newlabel{pcb_8h_a48f6457243719e7031768d4100741159}{{4.8}{20}{Macros}{section*.34}{}}
\newlabel{pcb_8h_a5add4e408a95d8a4a34ecc685a060b2d}{{4.8}{20}{Macros}{section*.34}{}}
\newlabel{pcb_8h_aeb2de2a76ea6728368042cf7a3fcd60c}{{4.8}{20}{Macros}{section*.34}{}}
\newlabel{pcb_8h_a6423a880df59733d2d9b509c7718d3a9}{{4.8}{20}{Macros}{section*.34}{}}
\newlabel{pcb_8h_a504e59726c5a48f1d3bda9cf9031aa84}{{4.8}{20}{Typedefs}{section*.35}{}}
\newlabel{pcb_8h_ab9fbe6152fba2901972c7987952b9402}{{4.8}{20}{Typedefs}{section*.35}{}}
\newlabel{pcb_8h_a85925fb5923b3133a5f45694cf9893ca}{{4.8}{20}{Typedefs}{section*.35}{}}
\newlabel{pcb_8h_aee0a059a29cc7341f83b8a011d141ced}{{4.8}{20}{Functions}{section*.36}{}}
\newlabel{pcb_8h_a70e949e544c1e8c06c5934584ed27686}{{4.8}{20}{Functions}{section*.36}{}}
\newlabel{pcb_8h_aca7e9e8a1747a97e79378b8f4093e4b3}{{4.8}{20}{Functions}{section*.36}{}}
\newlabel{pcb_8h_a70fcfbb6cfc9f42da5eeb5027a8cdd72}{{4.8}{20}{Functions}{section*.36}{}}
\newlabel{pcb_8h_abd218b7987bf5b5b2085eadb56196037}{{4.8}{20}{Functions}{section*.36}{}}
\newlabel{pcb_8h_abaf5a209b901d0648067e94079dffe22}{{4.8}{20}{Functions}{section*.36}{}}
\newlabel{pcb_8h_ad455d56d0574d2b3dacf80de41a1b0d3}{{4.8}{20}{Functions}{section*.36}{}}
\newlabel{pcb_8h_a529d9160be1f750f576a89ead11524af}{{4.8}{20}{Functions}{section*.36}{}}
\newlabel{pcb_8h_aa0b099416f1924dfce51fbc4bb8044e0}{{4.8}{20}{Functions}{section*.36}{}}
\newlabel{pcb_8h_adffccdb2f002ae6aab70579a4bd3df33}{{4.8}{20}{Functions}{section*.36}{}}
\newlabel{pcb_8h_a601ab89424b8f6678d72705a65f8d3c0}{{4.8}{20}{Functions}{section*.36}{}}
\newlabel{pcb_8h_a739de9f7ffcbe8e7d703811ba6a1bc97}{{4.8}{20}{Functions}{section*.36}{}}
\newlabel{pcb_8h_aeb6d02293d10442294625fe9ee77afde}{{4.8}{20}{Functions}{section*.36}{}}
\newlabel{pcb_8h_a8e0bb46bc82fce5b2a22e8bbba2c4043}{{4.8}{20}{Functions}{section*.36}{}}
\newlabel{pcb_8h_a855298e6ff9491b2d1811fa6538b9757}{{4.8}{20}{Functions}{section*.36}{}}
\newlabel{pcb_8h_add8a097d595456cdf48c3c2bbf87a5ca}{{4.8}{21}{Functions}{section*.36}{}}
\newlabel{pcb_8h_a0a16be65c34fdb52df6632fce7337536}{{4.8}{21}{Functions}{section*.36}{}}
\newlabel{pcb_8h_af7f5569cafe1b9a16cbedb2296541109}{{4.8}{21}{Functions}{section*.36}{}}
\newlabel{pcb_8h_a679a0d3e6a8a9576e7b32af6fa410fa6}{{4.8}{21}{Functions}{section*.36}{}}
\newlabel{pcb_8h_a397f4ece5ff9c229fdf22f4c10a3bf0a}{{4.8}{21}{Functions}{section*.36}{}}
\newlabel{pcb_8h_adb0d51d1f345fa18e772d519fa4d3cef}{{4.8}{21}{Functions}{section*.36}{}}
\newlabel{pcb_8h_a4bd736662dafa0fcf2c17324322100c4}{{4.8}{21}{Functions}{section*.36}{}}
\newlabel{pcb_8h_a8b596da1cd7867af737589cf0d153976}{{4.8}{21}{Functions}{section*.36}{}}
\newlabel{pcb_8h_a8556d19b129aa550f5b2819ed0320e83}{{4.8}{21}{Variables}{section*.37}{}}
\newlabel{pcb_8h_add6db7836716147544d91566d38865ae}{{4.8}{21}{Variables}{section*.37}{}}
\newlabel{pcb_8h_af2d6439e7da8676c1b1cc65c8f144125}{{4.8}{21}{Variables}{section*.37}{}}
\newlabel{pcb_8h_ad2e5e8c6707756f2b58750122e6c35e7}{{4.8}{21}{Variables}{section*.37}{}}
\newlabel{pcb_8h_a5d201c4fe93b68cf47f04d6ec2af77f8}{{4.8}{21}{Variables}{section*.37}{}}
\@writefile{toc}{\contentsline {section}{\numberline {4.9}mpx\discretionary {\mbox  {\scriptsize  $\hookleftarrow  $}}{}{}\_\discretionary {\mbox  {\scriptsize  $\hookleftarrow  $}}{}{}core/modules/\discretionary {\mbox  {\scriptsize  $\hookleftarrow  $}}{}{}R2/temp\discretionary {\mbox  {\scriptsize  $\hookleftarrow  $}}{}{}Commands.c File Reference}{21}{section.4.9}\protected@file@percent }
\newlabel{tempCommands_8c}{{4.9}{21}{mpx\+\_\+core/modules/\+R2/temp\+Commands.c File Reference}{section.4.9}{}}
\newlabel{tempCommands_8c_aa3b385f0e9fa8cb0dc70b3603ab4e615}{{4.9}{21}{Functions}{section*.38}{}}
\@writefile{toc}{\contentsline {section}{\numberline {4.10}mpx\discretionary {\mbox  {\scriptsize  $\hookleftarrow  $}}{}{}\_\discretionary {\mbox  {\scriptsize  $\hookleftarrow  $}}{}{}core/modules/\discretionary {\mbox  {\scriptsize  $\hookleftarrow  $}}{}{}R3/procsr3.h File Reference}{21}{section.4.10}\protected@file@percent }
\newlabel{procsr3_8h}{{4.10}{21}{mpx\+\_\+core/modules/\+R3/procsr3.h File Reference}{section.4.10}{}}
\newlabel{procsr3_8h_ade99845b64379d4ca17724eb6e39c2b4}{{4.10}{21}{Functions}{section*.39}{}}
\newlabel{procsr3_8h_af37cd4c55ba62a3241f54f8f4e8747e8}{{4.10}{21}{Functions}{section*.39}{}}
\newlabel{procsr3_8h_aea8e61640dff07a97542c429e0eb2559}{{4.10}{21}{Functions}{section*.39}{}}
\newlabel{procsr3_8h_a86a94995afad1e25eaab374c95c89c94}{{4.10}{21}{Functions}{section*.39}{}}
\newlabel{procsr3_8h_a6c2f639619099a32f0b4004bd111d679}{{4.10}{21}{Functions}{section*.39}{}}
\@writefile{toc}{\contentsline {section}{\numberline {4.11}mpx\discretionary {\mbox  {\scriptsize  $\hookleftarrow  $}}{}{}\_\discretionary {\mbox  {\scriptsize  $\hookleftarrow  $}}{}{}core/modules/\discretionary {\mbox  {\scriptsize  $\hookleftarrow  $}}{}{}R3/\discretionary {\mbox  {\scriptsize  $\hookleftarrow  $}}{}{}R4.h File Reference}{22}{section.4.11}\protected@file@percent }
\newlabel{R4_8h}{{4.11}{22}{mpx\+\_\+core/modules/\+R3/\+R4.h File Reference}{section.4.11}{}}
\newlabel{R4_8h_a3ed4b7acf2e5e46498c7957262f9a28c}{{4.11}{22}{Typedefs}{section*.41}{}}
\newlabel{R4_8h_a00250114f2f82dad41f3c47b93b1a003}{{4.11}{22}{Typedefs}{section*.41}{}}
\newlabel{R4_8h_a1f576ee1d06e908fc16330a4506780a9}{{4.11}{22}{Functions}{section*.42}{}}
\newlabel{R4_8h_aedb8f6a27a7ac9c762cea5e11804ed15}{{4.11}{22}{Functions}{section*.42}{}}
\newlabel{R4_8h_ab1e744820788a753cb86b25e7b6ee6f8}{{4.11}{22}{Functions}{section*.42}{}}
\newlabel{R4_8h_a52a992787d9ef585bb1070cf5f697424}{{4.11}{22}{Functions}{section*.42}{}}
\newlabel{R4_8h_a1824f7b1684fcd1da48b42d937bd754d}{{4.11}{22}{Functions}{section*.42}{}}
\newlabel{R4_8h_a0654dcac402343200cda60a2883360f3}{{4.11}{22}{Variables}{section*.43}{}}
\@writefile{toc}{\contentsline {section}{\numberline {4.12}mpx\discretionary {\mbox  {\scriptsize  $\hookleftarrow  $}}{}{}\_\discretionary {\mbox  {\scriptsize  $\hookleftarrow  $}}{}{}core/modules/\discretionary {\mbox  {\scriptsize  $\hookleftarrow  $}}{}{}R3/syscall.h File Reference}{22}{section.4.12}\protected@file@percent }
\newlabel{syscall_8h}{{4.12}{22}{mpx\+\_\+core/modules/\+R3/syscall.h File Reference}{section.4.12}{}}
\gdef \LT@i {\LT@entry 
    {3}{28.30663pt}\LT@entry 
    {3}{242.32741pt}}
\newlabel{syscall_8h_ade7142267502f8dab5da771b4329d4de}{{4.12}{23}{Typedefs}{section*.45}{}}
\newlabel{syscall_8h_abba5756a048f2051a379118e69e8d2f8}{{4.12}{23}{Typedefs}{section*.45}{}}
\newlabel{syscall_8h_afe1062510cd3fb7ad905ddd71b890fa1}{{4.12}{23}{Typedefs}{section*.45}{}}
\newlabel{syscall_8h_aad8093682fcfe15c2669288f19d1c52c}{{4.12}{23}{Functions}{section*.46}{}}
\newlabel{syscall_8h_acfbbcde3cdf443b678cf0368c785e60e}{{4.12}{23}{Functions}{section*.46}{}}
\newlabel{syscall_8h_a1762132885d106908222fcf23d31bd20}{{4.12}{23}{Functions}{section*.46}{}}
\newlabel{syscall_8h_a2bd807f231b85a61bec74da52efc9066}{{4.12}{23}{Functions}{section*.46}{}}
\newlabel{syscall_8h_ae5cddb05860b60fa41e7b4ce1980f45f}{{4.12}{23}{Functions}{section*.46}{}}
\newlabel{syscall_8h_acf185e25c30e10ed84e84251144bd51b}{{4.12}{23}{Functions}{section*.46}{}}
\newlabel{syscall_8h_a8e052a5870600f8b7d56221e0fe13c8d}{{4.12}{23}{Variables}{section*.47}{}}
\newlabel{syscall_8h_a482fbc1c56e67ba7869a767adf923c2d}{{4.12}{23}{Variables}{section*.47}{}}
\@writefile{toc}{\contentsline {subsection}{\numberline {4.12.1}Function Documentation}{23}{subsection.4.12.1}\protected@file@percent }
\newlabel{syscall_8h_a3c1aeeeb62d7c37a3a291c815785bd0b}{{4.12.1}{23}{Function Documentation}{subsection.4.12.1}{}}
\@writefile{toc}{\contentsline {subsubsection}{\numberline {4.12.1.1}io\_scheduler()}{23}{subsubsection.4.12.1.1}\protected@file@percent }
\@writefile{toc}{\contentsline {section}{\numberline {4.13}mpx\discretionary {\mbox  {\scriptsize  $\hookleftarrow  $}}{}{}\_\discretionary {\mbox  {\scriptsize  $\hookleftarrow  $}}{}{}core/modules/\discretionary {\mbox  {\scriptsize  $\hookleftarrow  $}}{}{}R5/r5.h File Reference}{24}{section.4.13}\protected@file@percent }
\newlabel{r5_8h}{{4.13}{24}{mpx\+\_\+core/modules/\+R5/r5.h File Reference}{section.4.13}{}}
\newlabel{r5_8h_a2a0d68d1028e81505dedb16c8a76f081}{{4.13}{24}{Typedefs}{section*.49}{}}
\newlabel{r5_8h_add28e18f67f9408d3a9f9f51e3ea6423}{{4.13}{24}{Typedefs}{section*.49}{}}
\newlabel{r5_8h_a2af45dc93858b3ab0965646789821f60}{{4.13}{24}{Typedefs}{section*.49}{}}
\newlabel{r5_8h_a632fb5550678e7d65db823fb1adc2dd9}{{4.13}{24}{Functions}{section*.50}{}}
\newlabel{r5_8h_ada5cc1fc38a13174a85af48107808d7b}{{4.13}{24}{Functions}{section*.50}{}}
\newlabel{r5_8h_ab5f9520a64c2ba44f86f88ab76be7961}{{4.13}{24}{Functions}{section*.50}{}}
\newlabel{r5_8h_a56e247efb8c71871cd17714811b9ad31}{{4.13}{24}{Functions}{section*.50}{}}
\newlabel{r5_8h_af9a31dac0f3ba5091ca8de0976e6be62}{{4.13}{25}{Functions}{section*.50}{}}
\newlabel{r5_8h_a4bfb4f25c10cb5914ab3be3a30bf077c}{{4.13}{25}{Functions}{section*.50}{}}
\newlabel{r5_8h_ac5d9d2cf06ca8dccc36579ee1677ce88}{{4.13}{25}{Functions}{section*.50}{}}
\newlabel{r5_8h_abaec816a6e4dd4cb1d4e70112b01b2e5}{{4.13}{25}{Functions}{section*.50}{}}
\@writefile{toc}{\contentsline {section}{\numberline {4.14}mpx\discretionary {\mbox  {\scriptsize  $\hookleftarrow  $}}{}{}\_\discretionary {\mbox  {\scriptsize  $\hookleftarrow  $}}{}{}core/modules/\discretionary {\mbox  {\scriptsize  $\hookleftarrow  $}}{}{}R6/\discretionary {\mbox  {\scriptsize  $\hookleftarrow  $}}{}{}R6.h File Reference}{25}{section.4.14}\protected@file@percent }
\newlabel{R6_8h}{{4.14}{25}{mpx\+\_\+core/modules/\+R6/\+R6.h File Reference}{section.4.14}{}}
\newlabel{R6_8h_a79bcfb6bde984f42d1124b068a509af7}{{4.14}{25}{Macros}{section*.52}{}}
\newlabel{R6_8h_aabe0f927d44a09f458bd5fe5ab4e2f7f}{{4.14}{25}{Macros}{section*.52}{}}
\newlabel{R6_8h_a34fd5b515939c138a447ea3f93df3fc6}{{4.14}{25}{Macros}{section*.52}{}}
\newlabel{R6_8h_acf43057fc38f77d20456c074909ba772}{{4.14}{25}{Macros}{section*.52}{}}
\newlabel{R6_8h_a300d7025bdb6441bdb1f44e2510e7077}{{4.14}{25}{Macros}{section*.52}{}}
\newlabel{R6_8h_acaccd2a518171153768710c6b8ff0232}{{4.14}{25}{Macros}{section*.52}{}}
\newlabel{R6_8h_ab3314d02e499e5a5e3188ce7fe741abc}{{4.14}{25}{Macros}{section*.52}{}}
\newlabel{R6_8h_a449a6abb227c6ee0a5ca562550dc5651}{{4.14}{25}{Macros}{section*.52}{}}
\newlabel{R6_8h_a57842fefd7fa676c36779e4f43ac6cc0}{{4.14}{25}{Macros}{section*.52}{}}
\newlabel{R6_8h_a6513628ede18301c0857892dab0ee4a9}{{4.14}{25}{Macros}{section*.52}{}}
\newlabel{R6_8h_a3c110671a96af8e2c8ab182e7397822f}{{4.14}{25}{Macros}{section*.52}{}}
\newlabel{R6_8h_a1d1581e7fe155ec30aa3e34788936e6c}{{4.14}{25}{Macros}{section*.52}{}}
\newlabel{R6_8h_a89831dd7cb646bfa61461e0b1d91add7}{{4.14}{25}{Macros}{section*.52}{}}
\newlabel{R6_8h_a22f09568ba99008ca5315e933cba82ee}{{4.14}{25}{Macros}{section*.52}{}}
\newlabel{R6_8h_a170d8eebdb48c16cfcd60cbd46760cb2}{{4.14}{25}{Macros}{section*.52}{}}
\newlabel{R6_8h_a603b478f70a928f442e33fefba73494a}{{4.14}{25}{Macros}{section*.52}{}}
\newlabel{R6_8h_a2c8a42b5b123cae6284cf89b410fdf1b}{{4.14}{25}{Macros}{section*.52}{}}
\newlabel{R6_8h_aeb70f9ca40ebae5eaf9c970681a35842}{{4.14}{25}{Macros}{section*.52}{}}
\newlabel{R6_8h_a6cd63466a7da9996e39a741b2cd27e5c}{{4.14}{25}{Macros}{section*.52}{}}
\newlabel{R6_8h_afa5599b307c9c32fd1b6e65ed7760910}{{4.14}{25}{Macros}{section*.52}{}}
\newlabel{R6_8h_aa762b96251a2d2e60d9e21e62e84225a}{{4.14}{25}{Macros}{section*.52}{}}
\newlabel{R6_8h_ab2d7327b9b38af3f546a73f269c14c5f}{{4.14}{25}{Macros}{section*.52}{}}
\newlabel{R6_8h_ae5de69e99206aeb151b9562e7ea0f48b}{{4.14}{25}{Macros}{section*.52}{}}
\newlabel{R6_8h_a839fa631faf18f4e0d75a152458fcb94}{{4.14}{25}{Macros}{section*.52}{}}
\newlabel{R6_8h_af0ed0b5f149b25321152111a8de93f3f}{{4.14}{25}{Macros}{section*.52}{}}
\newlabel{R6_8h_a5fd366716d87428651c80e10cdf6803d}{{4.14}{25}{Macros}{section*.52}{}}
\newlabel{R6_8h_a897dcfa373c0039a2db00f3662419275}{{4.14}{25}{Macros}{section*.52}{}}
\newlabel{R6_8h_a0f857eb0492092b5f818858b4264b961}{{4.14}{25}{Macros}{section*.52}{}}
\newlabel{R6_8h_a75c4fef32b56b2d875bff1671c20bdeb}{{4.14}{26}{Macros}{section*.52}{}}
\newlabel{R6_8h_acb1afa3f0c7c65d64859e4f45ec8be93}{{4.14}{26}{Macros}{section*.52}{}}
\newlabel{R6_8h_a3ab3bced3b86630c93b536bf31038d73}{{4.14}{26}{Macros}{section*.52}{}}
\newlabel{R6_8h_a2548589f0587c00c17f1f728a2f7df27}{{4.14}{26}{Macros}{section*.52}{}}
\newlabel{R6_8h_ac0ee8646017f8861ccdb83b22b630522}{{4.14}{26}{Macros}{section*.52}{}}
\newlabel{R6_8h_a6c3f748f6138bf4509cb4705b347e8a7}{{4.14}{26}{Macros}{section*.52}{}}
\newlabel{R6_8h_a13ee57d95da6b6509d43bb1b3f67bb02}{{4.14}{26}{Macros}{section*.52}{}}
\newlabel{R6_8h_a1354b70ac6803a06beebe84f61b5f95b}{{4.14}{26}{Macros}{section*.52}{}}
\newlabel{R6_8h_ad6664b6aa0b2ec18771fe01aefa1e760}{{4.14}{26}{Macros}{section*.52}{}}
\newlabel{R6_8h_acbf14be61dee3c5360166ab367657e6f}{{4.14}{26}{Macros}{section*.52}{}}
\newlabel{R6_8h_a8a85a9b65cca7b001b2f644b7bcd01ad}{{4.14}{26}{Typedefs}{section*.53}{}}
\@writefile{toc}{\contentsline {subsection}{\numberline {4.14.1}Function Documentation}{26}{subsection.4.14.1}\protected@file@percent }
\newlabel{R6_8h_aa39f1d25e881ffac9559b2fe816fe943}{{4.14.1}{26}{Function Documentation}{subsection.4.14.1}{}}
\@writefile{toc}{\contentsline {subsubsection}{\numberline {4.14.1.1}com\_close()}{26}{subsubsection.4.14.1.1}\protected@file@percent }
\newlabel{R6_8h_ace05d0df1dde5e194463abb3408040b3}{{4.14.1.1}{26}{\texorpdfstring {com\_close()}{com\_close()}}{subsubsection.4.14.1.1}{}}
\gdef \LT@ii {\LT@entry 
    {3}{53.23616pt}\LT@entry 
    {3}{172.35835pt}}
\@writefile{toc}{\contentsline {subsubsection}{\numberline {4.14.1.2}com\_open()}{27}{subsubsection.4.14.1.2}\protected@file@percent }
\newlabel{R6_8h_acea257a7e70fd62fdd7856d2670c808b}{{4.14.1.2}{27}{\texorpdfstring {com\_open()}{com\_open()}}{table.4.2}{}}
\@writefile{toc}{\contentsline {subsubsection}{\numberline {4.14.1.3}com\_read()}{27}{subsubsection.4.14.1.3}\protected@file@percent }
\gdef \LT@iii {\LT@entry 
    {3}{50.3202pt}\LT@entry 
    {3}{404.9239pt}}
\newlabel{R6_8h_abfd6531625269be0dce4c041480042c1}{{4.14.1.3}{28}{\texorpdfstring {com\_read()}{com\_read()}}{table.4.3}{}}
\@writefile{toc}{\contentsline {subsubsection}{\numberline {4.14.1.4}com\_write()}{28}{subsubsection.4.14.1.4}\protected@file@percent }
\gdef \LT@iv {\LT@entry 
    {3}{50.3202pt}\LT@entry 
    {3}{220.20142pt}}
\newlabel{R6_8h_a52651bf1923b2c97e8b4da0ac6b99fdb}{{4.14.1.4}{29}{\texorpdfstring {com\_write()}{com\_write()}}{table.4.4}{}}
\@writefile{toc}{\contentsline {subsubsection}{\numberline {4.14.1.5}disable\_interrupts()}{29}{subsubsection.4.14.1.5}\protected@file@percent }
\newlabel{R6_8h_a154b837080a092ecbab0735a0254c4b4}{{4.14.1.5}{29}{\texorpdfstring {disable\_interrupts()}{disable\_interrupts()}}{subsubsection.4.14.1.5}{}}
\@writefile{toc}{\contentsline {subsubsection}{\numberline {4.14.1.6}enable\_interrupts()}{29}{subsubsection.4.14.1.6}\protected@file@percent }
\newlabel{R6_8h_a0e091000176940ad2ec8e6ec0038b250}{{4.14.1.6}{29}{\texorpdfstring {enable\_interrupts()}{enable\_interrupts()}}{subsubsection.4.14.1.6}{}}
\gdef \LT@v {\LT@entry 
    {3}{50.86928pt}\LT@entry 
    {3}{268.0268pt}}
\gdef \LT@vi {\LT@entry 
    {3}{39.63751pt}\LT@entry 
    {3}{117.96764pt}}
\@writefile{toc}{\contentsline {subsubsection}{\numberline {4.14.1.7}pic\_mask()}{30}{subsubsection.4.14.1.7}\protected@file@percent }
\newlabel{R6_8h_a8101764095581ae0e26913104211604d}{{4.14.1.7}{30}{\texorpdfstring {pic\_mask()}{pic\_mask()}}{table.4.6}{}}
\@writefile{toc}{\contentsline {subsubsection}{\numberline {4.14.1.8}serial\_io()}{30}{subsubsection.4.14.1.8}\protected@file@percent }
\newlabel{R6_8h_a0dc56cfc8a5cde954dc0cae7508aacb8}{{4.14.1.8}{30}{\texorpdfstring {serial\_io()}{serial\_io()}}{subsubsection.4.14.1.8}{}}
\@writefile{toc}{\contentsline {subsubsection}{\numberline {4.14.1.9}serial\_read()}{30}{subsubsection.4.14.1.9}\protected@file@percent }
\newlabel{R6_8h_a9d22b835b87161903cca33b51f78064c}{{4.14.1.9}{31}{\texorpdfstring {serial\_read()}{serial\_read()}}{subsubsection.4.14.1.9}{}}
\@writefile{toc}{\contentsline {subsubsection}{\numberline {4.14.1.10}serial\_write()}{31}{subsubsection.4.14.1.10}\protected@file@percent }
\@writefile{toc}{\contentsline {chapter}{Index}{33}{section*.55}\protected@file@percent }
